                                     
                                       如何提高搜索能力
搜索套路：1）国内首选百度，国外用谷歌
       2）微信，知乎，淘宝搜索
       3）QQ群关键词搜索
       4）咨询专家
搜索技巧:1）权威问题选百度百科
      2）自由问题选知乎
       3）专业文章：微信
特定信息：1）行业：国家统计局网站；中国经济信息网
       2）企业：天眼查
       3）趋势：百度指数
搜索过程中的语法运用:1）关键词搜索
              2）特定网站
注：提高对信息的筛选，判断和评价能力
   去伪存真，将信息转变为自己的知识体系